{
    "header": {
        "company-info": {
            "phone": "09101/49 77-0",
            "fax": "09101/49 77-10",
            "email": "info@feldmann.de",
            "whatsapp": "09101 4977-0"
        },
        "subshops": {
            "de": {
                "link": "https://shop.feldmann-gmbh.com/"
            },
            "at": {
                "link": "https://shop.feldmann-gmbh.at/"
            },
            "ch": {
                "link": "https://shop.feldmann-gmbh.ch/"
            }
        }
    },
    "account": {
        "labelLogin": "Anmelden",
        "labelAccount": "Kundenkonto",
        "labelCart": "Warenkorb",
        "labelCustomerNumber": "Ihre Kundennummer",
        "loginMailPlaceholder": "Ihre E-Mail-Adresse",
        "loginPasswordPlaceholder": "Ihr Passwort",
        "loginPasswordRecover": "Passwort vergessen?",
        "personalCompanyLabel": "Firma",
        "personalCompanyPlaceholder": "Ihre Firma",
        "personalCustomerNrLabel": "Kundennummer",
        "personalCustomerNrPlaceholder": "Ihre Kundennummer",
        "invoices": "Rechnung:",
        "reclaim": "Reklamation",
        "reclaimSubject": "Reklamation für Bestellung: %order_number%"
    },
    "menu": {
        "showMore": "Mehr",
        "allCategories": "Alle Kategorien"
    },
    "footer": {
        "serviceNewsletterHeadline": "Newsletter abonnieren",
        "serviceNewsletterDescription": "Abonnieren Sie unseren kostenlosen Newsletter und erhalten Sie regelmäßig exklusive Informationen von Feldmann.",
        "includeVat": "*Alle Preise inkl. gesetzl. Mehrwertsteuer. Alle Rechte vorbehalten.",
        "excludeVat": "*Alle Preise zzgl. Mehrwertsteuer. Alle Rechte vorbehalten.",
        "footer.copyrightInfo": "© 2020 Feldmann Metall & Schmiedekunst GmbH",
        "sloganText": "Wir sind Partner der Fachbetriebe, Architekten und Planer."
    },
    "listing": {
        "toSubCategoryText": "Zu den Produkten",
        "limitTitleText": "Artikel pro Seite",
        "productNrLabel": "Artikel-Nr.:"
    },
    "detail": {
        "priceLabel": "Ihr Onlinepreis",
        "ordernumberLabel": "Artikel-Nr.:",
        "grossTaxInformation": "Preise inkl. MwSt. zzgl. ",
        "netTaxInformation": "Preise exkl. MwSt. zzgl. ",
        "deliveryCost": "Versandkosten",
        "action": {
            "inquiry": "Fragen zum Artikel",
            "share": "Teilen"
        },
        "social": {
            "label": {
                "email": "Email",
                "whatsapp": "Whatsapp"
            },
            "email": {
                "subject": "",
                "body": ""
            },
            "whatsapp": "",
            "twitter": ""
        }
    },
    "general": {
        "star": "",
        "privacyNotice": "Ich habe die <a data-toggle=\"modal\" data-url=\"%url%\" href=\"%url%\" title=\"Datenschutzbestimmungen\">Datenschutzbestimmungen</a> zur Kenntnis genommen."
    },
    "social-icons": {
        "contact": {
            "title": "Kontaktformular",
            "url": "/Unternehmen/Ansprechpartner/"
        },
        "partner": {
            "title": "Ansprechpartner",
            "url": "/Unternehmen/Ansprechpartner/"
        },
        "facebook": {
            "title": "Facebook",
            "url": "https://www.facebook.com/feldmanngmbhlgz"
        },
        "youtube": {
            "title": "Youtube",
            "url": "https://www.youtube.com/channel/UCWHWgr-vc-R1Iud_cMMeANw"
        }
    },
    "cookie": {
        "acceptSelected": "Speichern",
        "acceptAll": "Alle akzeptieren"
    }
}
