{
    "ies-offer": {
        "account": {
            "offersTitle": "Angebote:",
            "offersWelcome": "Hier finden Sie alle Ihre Angebote, nach Datum sortiert:",
            "offersInfoEmpty": "Sie haben noch keine Angebote vorliegen.",
            "offerHeadline": "Angebot:",
            "offerStatus": "Status:",
            "offerStatusAccepted": "Akzeptiert",
            "offerStatusOpen": "Offen",
            "offersLink": "Angebote",
            "invoiceTitle": "Offline Rechnungen:",
            "invoiceWelcome": "Hier finden Sie Ihre Rechnungen zu Bestellungen die nicht über den Shop getätigt wurden",
            "invoiceLink": "Offline Rechnungen",
            "invoiceInfoEmpty": "Sie haben noch keine Rechnungen vorliegen",
            "invoiceHeadline": "Rechnung:",
            "download": "Download",
            "acceptButton": "Beauftragen...",
            "acceptOffer": "Angebot %offer% beauftragen",
            "offerClose": "Schließen",
            "offerAccept": "Beauftragen",
            "offerPlaceholder": "Optionale Nachricht"
        }
    }
}
